{
  "defaultSeverity": "error",
  "extends": [
    "tslint:recommended",
    "tslint-react",
    "tslint-clean-code",
    "tslint-sonarts",
    "tslint-config-prettier"
  ],
  "rulesDirectory": ["tslint-plugin-prettier"],
  "rules": {
    "interface-name": false,
    "no-default-export": true,
    "prettier": true
  }
}
